%YAML 1.1
%TAG !u! tag:unity3d.com,2011:
--- !u!1045 &1
EditorBuildSettings:
  m_ObjectHideFlags: 0
  serializedVersion: 2
  m_Scenes:
  - enabled: 1
    path: Assets/Game/Scenes/Menu.unity
    guid: 48ec2aa1f075a4549b9db3cbe4ac8b37
  - enabled: 1
    path: Assets/Game/Scenes/Character Selection.unity
    guid: bf8299d5d4f105144ac304a37fac75c0
  - enabled: 1
    path: Assets/Game/Scenes/Game.unity
    guid: f0964a933ce7f4c4fa65319cc49c48d7
  - enabled: 1
    path: Assets/Game/Scenes/Credits.unity
    guid: 2ea73b09f7422984fb7bfeab80a3dfb7
