%YAML 1.1
%TAG !u! tag:unity3d.com,2011:
--- !u!114 &11400000
MonoBehaviour:
  m_ObjectHideFlags: 0
  m_PrefabParentObject: {fileID: 0}
  m_PrefabInternal: {fileID: 0}
  m_GameObject: {fileID: 0}
  m_Enabled: 1
  m_EditorHideFlags: 0
  m_Script: {fileID: 11500000, guid: 48a5fb628eb368441bd907d7a5c18473, type: 3}
  m_Name: Enemy 5
  m_EditorClassIdentifier: 
  HP: 10
  MHP: 10
  Power: 1
  AttackSpeed: 20
  Speed: 5
  JumpForce: 0
  Model: Placeholder Enemy
  InitialPosition: {x: -22, y: 3, z: 0}
